Suite/Test/Step Name,Browser,Description,Tag,Start time,End time,Duration,Status
Feature Cucumber Siong Tjie,,,,2024-03-21 08:22:25,2024-03-21 08:38:42,16m - 17.386s,INCOMPLETE
,,,,,,,
Test Cases/Step Definition/Feature Cucumber/Register,,,,2024-03-21 08:22:25,2024-03-21 08:29:44,7m - 18.160s,PASSED
"runFeatureFile(""Include/features/Register.feature"")",,,,2024-03-21 08:22:26,2024-03-21 08:29:44,7m - 17.767s,PASSED
,,,,,,,
Test Cases/Step Definition/Feature Cucumber/Login,,,,2024-03-21 08:29:44,2024-03-21 08:32:17,2m - 33.404s,PASSED
"runFeatureFile(""Include/features/Login.feature"")",,,,2024-03-21 08:29:44,2024-03-21 08:32:17,2m - 32.786s,PASSED
,,,,,,,
Test Cases/Step Definition/Feature Cucumber/Edit Product,,,,2024-03-21 08:32:17,2024-03-21 08:38:42,6m - 25.390s,INCOMPLETE
"runFeatureFile(""Include/features/EditProductNegativeNamaProductKosong.feature"")",,,,2024-03-21 08:32:18,2024-03-21 08:33:03,44.925s,PASSED
"runFeatureFile(""Include/features/EditProductNegativeHargaKosong.feature"")",,,,2024-03-21 08:33:03,2024-03-21 08:33:41,38.528s,PASSED
"runFeatureFile(""Include/features/EditProductNegativeLokasiKosong.feature"")",,,,2024-03-21 08:33:41,2024-03-21 08:34:19,38.399s,PASSED
"runFeatureFile(""Include/features/EditProduct.feature"")",,,,2024-03-21 08:34:19,2024-03-21 08:38:42,4m - 22.921s,INCOMPLETE
