Suite/Test/Step Name,Browser,Description,Tag,Start time,End time,Duration,Status
Feature Cucumber,,,,2024-03-06 09:11:09,2024-03-06 09:23:37,12m - 27.858s,PASSED
,,,,,,,
Test Cases/Step Definition/Feature Cucumber/Login,,,,2024-03-06 09:11:10,2024-03-06 09:13:48,2m - 37.929s,PASSED
"runFeatureFile(""Include/features/Login.feature"")",,,,2024-03-06 09:11:10,2024-03-06 09:13:48,2m - 37.602s,PASSED
,,,,,,,
Test Cases/Step Definition/Feature Cucumber/Logout,,,,2024-03-06 09:13:48,2024-03-06 09:14:18,30.848s,PASSED
"runFeatureFile(""Include/features/LogOut.feature"")",,,,2024-03-06 09:13:48,2024-03-06 09:14:18,30.181s,PASSED
,,,,,,,
Test Cases/Step Definition/Feature Cucumber/Register,,,,2024-03-06 09:14:18,2024-03-06 09:20:52,6m - 33.089s,PASSED
"runFeatureFile(""Include/features/Register.feature"")",,,,2024-03-06 09:14:19,2024-03-06 09:20:52,6m - 32.759s,PASSED
,,,,,,,
Test Cases/Step Definition/Feature Cucumber/Edit Product,,,,2024-03-06 09:20:52,2024-03-06 09:23:37,2m - 45.621s,PASSED
"runFeatureFile(""Include/features/EditProductNegativeNamaProductKosong.feature"")",,,,2024-03-06 09:20:52,2024-03-06 09:21:28,36.278s,PASSED
"runFeatureFile(""Include/features/EditProductNegativeHargaKosong.feature"")",,,,2024-03-06 09:21:28,2024-03-06 09:22:07,38.654s,PASSED
"runFeatureFile(""Include/features/EditProductNegativeLokasiKosong.feature"")",,,,2024-03-06 09:22:07,2024-03-06 09:22:43,36.554s,PASSED
"runFeatureFile(""Include/features/EditProduct.feature"")",,,,2024-03-06 09:22:43,2024-03-06 09:23:37,53.893s,PASSED
