[
  {
    "line": 1,
    "elements": [
      {
        "BDD_TESTRUN_UUID": "f5b00ba8-0c43-42d7-95e5-6bed00ad3193",
        "line": 3,
        "name": "User want to Edit Product Blank Nama Barang",
        "description": "",
        "id": "edit-product-negative-feature;user-want-to-edit-product-blank-nama-barang",
        "type": "scenario",
        "keyword": "Scenario",
        "steps": [
          {
            "result": {
              "duration": 16085423700,
              "status": "passed"
            },
            "line": 4,
            "name": "User navigates to edit product blank nama barang",
            "match": {
              "location": "EditProductNegativeNamaProductKosong.navigateToeditnegativepage()"
            },
            "keyword": "Given ",
            "BDD_STEP_UUID": "05f7b4cc-4230-4c99-ade2-0bc2286a2eb1"
          },
          {
            "result": {
              "duration": 7215198000,
              "status": "passed"
            },
            "line": 5,
            "name": "User fill form edit product blank nama barang",
            "match": {
              "location": "EditProductNegativeNamaProductKosong.entereditproductnegative()"
            },
            "keyword": "When ",
            "BDD_STEP_UUID": "fa190769-802c-47c8-8231-a1199b2ab5b7"
          },
          {
            "result": {
              "duration": 731291000,
              "status": "passed"
            },
            "line": 6,
            "name": "User is form edit product",
            "match": {
              "location": "EditProductNegativeNamaProductKosong.verifylisteditproductnegative()"
            },
            "keyword": "Then ",
            "BDD_STEP_UUID": "fa69db44-268d-46d8-9f13-4d4dc7a98a94"
          }
        ]
      }
    ],
    "name": "Edit Product Negative Feature",
    "description": "",
    "id": "edit-product-negative-feature",
    "keyword": "Feature",
    "uri": "C:/Users/USER/Katalon Studio/APK_Second_Hand/Include/features/EditProductNegativeNamaProductKosong.feature",
    "tags": []
  }
]