Suite/Test/Step Name,Browser,Description,Tag,Start time,End time,Duration,Status
Feature Cucumber Siong Tjie,,,,2024-03-20 20:32:12,2024-03-20 20:40:57,8m - 45.035s,PASSED
,,,,,,,
Test Cases/Step Definition/Feature Cucumber/Register,,,,2024-03-20 20:32:13,2024-03-20 20:37:10,4m - 57.528s,PASSED
"runFeatureFile(""Include/features/Register.feature"")",,,,2024-03-20 20:32:13,2024-03-20 20:37:10,4m - 57.080s,PASSED
,,,,,,,
Test Cases/Step Definition/Feature Cucumber/Login,,,,2024-03-20 20:37:10,2024-03-20 20:38:45,1m - 34.762s,PASSED
"runFeatureFile(""Include/features/Login.feature"")",,,,2024-03-20 20:37:10,2024-03-20 20:38:45,1m - 34.564s,PASSED
,,,,,,,
Test Cases/Step Definition/Feature Cucumber/Edit Product,,,,2024-03-20 20:38:45,2024-03-20 20:40:41,1m - 56.470s,PASSED
"runFeatureFile(""Include/features/EditProductNegativeNamaProductKosong.feature"")",,,,2024-03-20 20:38:45,2024-03-20 20:39:10,24.677s,PASSED
"runFeatureFile(""Include/features/EditProductNegativeHargaKosong.feature"")",,,,2024-03-20 20:39:10,2024-03-20 20:39:35,24.596s,PASSED
"runFeatureFile(""Include/features/EditProductNegativeLokasiKosong.feature"")",,,,2024-03-20 20:39:35,2024-03-20 20:39:59,24.500s,PASSED
"runFeatureFile(""Include/features/EditProduct.feature"")",,,,2024-03-20 20:39:59,2024-03-20 20:40:41,42.360s,PASSED
,,,,,,,
Test Cases/Step Definition/Feature Cucumber/Logout,,,,2024-03-20 20:40:41,2024-03-20 20:40:57,15.867s,PASSED
"runFeatureFile(""Include/features/LogOut.feature"")",,,,2024-03-20 20:40:42,2024-03-20 20:40:57,15.619s,PASSED
