[
  {
    "line": 1,
    "elements": [
      {
        "BDD_TESTRUN_UUID": "e1bc79ef-c114-406a-a4e6-7ff5da903536",
        "line": 3,
        "name": "User want to Edit Product",
        "description": "",
        "id": "edit-product-feature;user-want-to-edit-product",
        "type": "scenario",
        "keyword": "Scenario",
        "steps": [
          {
            "result": {
              "duration": 18596265600,
              "status": "passed"
            },
            "line": 4,
            "name": "User navigates to edit product",
            "match": {
              "location": "EditProduct.navigateToeditpage()"
            },
            "keyword": "Given ",
            "BDD_STEP_UUID": "33619276-30b6-4b8b-8f63-4a60ca33a35c"
          },
          {
            "result": {
              "duration": 37010808500,
              "status": "passed"
            },
            "line": 5,
            "name": "User fill form edit product",
            "match": {
              "location": "EditProduct.entereditproduct()"
            },
            "keyword": "When ",
            "BDD_STEP_UUID": "32753f6c-8b86-4280-8f6c-f7dc0d8d83f6"
          },
          {
            "result": {
              "duration": 675786500,
              "status": "passed"
            },
            "line": 6,
            "name": "User is navigated list product",
            "match": {
              "location": "EditProduct.verifylisteditproduct()"
            },
            "keyword": "Then ",
            "BDD_STEP_UUID": "a4995868-53a3-449f-8cf6-317463ff066f"
          }
        ]
      }
    ],
    "name": "Edit Product Feature",
    "description": "",
    "id": "edit-product-feature",
    "keyword": "Feature",
    "uri": "C:/Users/USER/Katalon Studio/APK_Second_Hand/Include/features/EditProduct.feature",
    "tags": []
  }
]