[
  {
    "line": 1,
    "elements": [
      {
        "line": 3,
        "name": "User want to register",
        "description": "",
        "id": "register-feature;user-want-to-register",
        "type": "scenario",
        "keyword": "Scenario",
        "steps": [
          {
            "result": {
              "duration": 18316800,
              "status": "passed"
            },
            "line": 4,
            "name": "User navigates to register page",
            "match": {
              "location": "FeatureStep.navigateToregsiter()"
            },
            "keyword": "Given "
          },
          {
            "result": {
              "duration": 432223875700,
              "status": "passed"
            },
            "line": 5,
            "name": "User fill the form",
            "match": {
              "location": "FeatureStep.enterform()"
            },
            "keyword": "When "
          },
          {
            "result": {
              "duration": 3922292100,
              "status": "passed"
            },
            "line": 6,
            "name": "User is navigated to profile",
            "match": {
              "location": "FeatureStep.verifyregister()"
            },
            "keyword": "Then "
          }
        ]
      }
    ],
    "name": "Register Feature",
    "description": "",
    "id": "register-feature",
    "keyword": "Feature",
    "uri": "C:/Binar Academy/Platinum Challenge/platinum_challenge_apk_qae17/Include/features/Register.feature",
    "tags": []
  }
]