[
  {
    "line": 1,
    "elements": [
      {
        "BDD_TESTRUN_UUID": "1664de35-6dc6-49fe-a94a-eeed56bf4326",
        "line": 3,
        "name": "User want to Edit Product",
        "description": "",
        "id": "edit-product-feature;user-want-to-edit-product",
        "type": "scenario",
        "keyword": "Scenario",
        "steps": [
          {
            "result": {
              "duration": 21196585100,
              "status": "passed"
            },
            "line": 4,
            "name": "User navigates to edit product",
            "match": {
              "location": "EditProduct.navigateToeditpage()"
            },
            "keyword": "Given ",
            "BDD_STEP_UUID": "55f4062f-4d7b-4aab-8320-ba7d60dc7084"
          },
          {
            "result": {
              "error_message": "com.kms.katalon.core.exception.StepFailedException: Object Object Repository/Page_Edit Produk/android.widget.EditText - surabaya 100 not found\r\n\tat com.kms.katalon.core.keyword.internal.KeywordMain.stepFailed(KeywordMain.groovy:51)\r\n\tat com.kms.katalon.core.mobile.keyword.internal.MobileKeywordMain.stepFailed(MobileKeywordMain.groovy:40)\r\n\tat com.kms.katalon.core.mobile.keyword.builtin.SetTextKeyword$_setText_closure1.doCall(SetTextKeyword.groovy:76)\r\n\tat com.kms.katalon.core.mobile.keyword.builtin.SetTextKeyword$_setText_closure1.call(SetTextKeyword.groovy)\r\n\tat com.kms.katalon.core.mobile.keyword.internal.MobileKeywordMain.runKeyword(MobileKeywordMain.groovy:21)\r\n\tat com.kms.katalon.core.mobile.keyword.builtin.SetTextKeyword.setText(SetTextKeyword.groovy:83)\r\n\tat com.kms.katalon.core.mobile.keyword.builtin.SetTextKeyword.execute(SetTextKeyword.groovy:66)\r\n\tat com.kms.katalon.core.keyword.internal.KeywordExecutor.executeKeywordForPlatform(KeywordExecutor.groovy:74)\r\n\tat com.kms.katalon.core.mobile.keyword.MobileBuiltInKeywords.setText(MobileBuiltInKeywords.groovy:1307)\r\n\tat com.kms.katalon.core.mobile.keyword.MobileBuiltInKeywords$setText$1.call(Unknown Source)\r\n\tat stepDefinition.EditProduct.entereditproduct(EditProduct.groovy:90)\r\n\tat ✽.User fill form edit product(C:/Users/USER/Katalon Studio/APK_Second_Hand/Include/features/EditProduct.feature:5)\r\n",
              "duration": 39183653800,
              "status": "failed"
            },
            "line": 5,
            "name": "User fill form edit product",
            "match": {
              "location": "EditProduct.entereditproduct()"
            },
            "keyword": "When ",
            "BDD_STEP_UUID": "d1031258-b43c-4f59-ac1c-5d3f23886ba5"
          },
          {
            "result": {
              "status": "skipped"
            },
            "line": 6,
            "name": "User is navigated list product",
            "match": {
              "location": "EditProduct.verifylisteditproduct()"
            },
            "keyword": "Then ",
            "BDD_STEP_UUID": "dc664d2b-dad2-4388-bf38-e5f8ea391e45"
          }
        ]
      }
    ],
    "name": "Edit Product Feature",
    "description": "",
    "id": "edit-product-feature",
    "keyword": "Feature",
    "uri": "C:/Users/USER/Katalon Studio/APK_Second_Hand/Include/features/EditProduct.feature",
    "tags": []
  }
]