[
  {
    "line": 1,
    "elements": [
      {
        "BDD_TESTRUN_UUID": "24b8eb46-8cf8-4de7-acfc-f36cd7203883",
        "line": 3,
        "name": "User want to Edit Product Blank Nama Barang",
        "description": "",
        "id": "edit-product-negative-feature;user-want-to-edit-product-blank-nama-barang",
        "type": "scenario",
        "keyword": "Scenario",
        "steps": [
          {
            "result": {
              "duration": 25465995000,
              "status": "passed"
            },
            "line": 4,
            "name": "User navigates to edit product blank nama barang",
            "match": {
              "location": "EditProductNegativeNamaProductKosong.navigateToeditnegativepage()"
            },
            "keyword": "Given ",
            "BDD_STEP_UUID": "68a6d9d6-4290-47b7-825d-a4b659699a9a"
          },
          {
            "result": {
              "duration": 9714368600,
              "status": "passed"
            },
            "line": 5,
            "name": "User fill form edit product blank nama barang",
            "match": {
              "location": "EditProductNegativeNamaProductKosong.entereditproductnegative()"
            },
            "keyword": "When ",
            "BDD_STEP_UUID": "d9bdb02f-7361-4147-bc99-a3a6ecd41104"
          },
          {
            "result": {
              "duration": 1434874500,
              "status": "passed"
            },
            "line": 6,
            "name": "User is form edit product",
            "match": {
              "location": "EditProductNegativeNamaProductKosong.verifylisteditproductnegative()"
            },
            "keyword": "Then ",
            "BDD_STEP_UUID": "a21777b4-2ba8-47b4-81c4-4af089e43b49"
          }
        ]
      }
    ],
    "name": "Edit Product Negative Feature",
    "description": "",
    "id": "edit-product-negative-feature",
    "keyword": "Feature",
    "uri": "C:/Binar Academy/Platinum Challenge/platinum_challenge_apk_qae17/Include/features/EditProductNegativeNamaProductKosong.feature",
    "tags": []
  }
]