[
  {
    "line": 1,
    "elements": [
      {
        "BDD_TESTRUN_UUID": "9dc32b50-d6d1-4dc2-845a-20cabfa165f2",
        "line": 3,
        "name": "User want to Edit Product Blank Lokasi Barang",
        "description": "",
        "id": "edit-product-negative-feature-2;user-want-to-edit-product-blank-lokasi-barang",
        "type": "scenario",
        "keyword": "Scenario",
        "steps": [
          {
            "result": {
              "duration": 18193989800,
              "status": "passed"
            },
            "line": 4,
            "name": "User navigates to edit product blank lokasi barang",
            "match": {
              "location": "EditProductNegativeLokasiKosong.navigateToeditnegativepage2()"
            },
            "keyword": "Given ",
            "BDD_STEP_UUID": "92860d20-35aa-472c-8271-5f3dbf25f7de"
          },
          {
            "result": {
              "duration": 5022503900,
              "status": "passed"
            },
            "line": 5,
            "name": "User fill form edit product blank lokasi barang",
            "match": {
              "location": "EditProductNegativeLokasiKosong.entereditproductnegativelokasi()"
            },
            "keyword": "When ",
            "BDD_STEP_UUID": "b02643c3-92ce-4619-8d19-eb969020f3bf"
          },
          {
            "result": {
              "duration": 715663800,
              "status": "passed"
            },
            "line": 6,
            "name": "User is form edit product2",
            "match": {
              "location": "EditProductNegativeLokasiKosong.verifylisteditproductnegative2()"
            },
            "keyword": "Then ",
            "BDD_STEP_UUID": "ebfcdb7f-a0ba-4079-8f8c-5ea3e851b485"
          }
        ]
      }
    ],
    "name": "Edit Product Negative Feature 2",
    "description": "",
    "id": "edit-product-negative-feature-2",
    "keyword": "Feature",
    "uri": "C:/Binar Academy/Platinum Challenge/platinum_challenge_apk_qae17/Include/features/EditProductNegativeLokasiKosong.feature",
    "tags": []
  }
]