[
  {
    "line": 1,
    "elements": [
      {
        "BDD_TESTRUN_UUID": "de771dfd-dc16-4d79-a63e-a115612dd1d3",
        "line": 3,
        "name": "User want to Edit Product",
        "description": "",
        "id": "edit-product-feature;user-want-to-edit-product",
        "type": "scenario",
        "keyword": "Scenario",
        "steps": [
          {
            "result": {
              "duration": 19059091600,
              "status": "passed"
            },
            "line": 4,
            "name": "User navigates to edit product",
            "match": {
              "location": "EditProduct.navigateToeditpage()"
            },
            "keyword": "Given ",
            "BDD_STEP_UUID": "f10b2d57-ca36-4cea-90a4-2be93c1e32bb"
          },
          {
            "result": {
              "duration": 19242926000,
              "status": "passed"
            },
            "line": 5,
            "name": "User fill form edit product",
            "match": {
              "location": "EditProduct.entereditproduct()"
            },
            "keyword": "When ",
            "BDD_STEP_UUID": "a2299e0a-2196-49c8-8de5-7b1ea34e2cff"
          },
          {
            "result": {
              "duration": 848195500,
              "status": "passed"
            },
            "line": 6,
            "name": "User is navigated list product",
            "match": {
              "location": "EditProduct.verifylisteditproduct()"
            },
            "keyword": "Then ",
            "BDD_STEP_UUID": "3e7a250f-f02c-4036-9614-9f4665015f28"
          }
        ]
      }
    ],
    "name": "Edit Product Feature",
    "description": "",
    "id": "edit-product-feature",
    "keyword": "Feature",
    "uri": "C:/Binar Academy/Platinum Challenge/platinum_challenge_apk_qae17/Include/features/EditProduct.feature",
    "tags": []
  }
]