[
  {
    "line": 1,
    "elements": [
      {
        "BDD_TESTRUN_UUID": "b1d1977e-025a-4793-989d-b7b55796b06c",
        "line": 3,
        "name": "User want to register",
        "description": "",
        "id": "register-feature;user-want-to-register",
        "type": "scenario",
        "keyword": "Scenario",
        "steps": [
          {
            "result": {
              "duration": 17563700,
              "status": "passed"
            },
            "line": 4,
            "name": "User navigates to register page",
            "match": {
              "location": "FeatureStep.navigateToregsiter()"
            },
            "keyword": "Given ",
            "BDD_STEP_UUID": "2a7ad635-8c4f-4b6e-8bcc-718296ba8681"
          },
          {
            "result": {
              "duration": 285589790400,
              "status": "passed"
            },
            "line": 5,
            "name": "User fill the form",
            "match": {
              "location": "FeatureStep.enterform()"
            },
            "keyword": "When ",
            "BDD_STEP_UUID": "9e8876a2-13bd-4d94-a5f6-d8530ca21e67"
          },
          {
            "result": {
              "duration": 2306142500,
              "status": "passed"
            },
            "line": 6,
            "name": "User is navigated to profile",
            "match": {
              "location": "FeatureStep.verifyregister()"
            },
            "keyword": "Then ",
            "BDD_STEP_UUID": "9e5b936d-6632-46ab-a939-7205d219629f"
          }
        ]
      }
    ],
    "name": "Register Feature",
    "description": "",
    "id": "register-feature",
    "keyword": "Feature",
    "uri": "C:/Binar Academy/Platinum Challenge/platinum_challenge_apk_qae17/Include/features/Register.feature",
    "tags": []
  }
]