[
  {
    "line": 1,
    "elements": [
      {
        "BDD_TESTRUN_UUID": "3866ba74-f0a8-42e3-a8fa-c4f3b9d25349",
        "line": 3,
        "name": "User want to Edit Product",
        "description": "",
        "id": "edit-product-feature;user-want-to-edit-product",
        "type": "scenario",
        "keyword": "Scenario",
        "steps": [
          {
            "result": {
              "duration": 34515355700,
              "status": "passed"
            },
            "line": 4,
            "name": "User navigates to edit product",
            "match": {
              "location": "EditProduct.navigateToeditpage()"
            },
            "keyword": "Given ",
            "BDD_STEP_UUID": "05226bf9-eade-49f7-a08f-71dd4f5bfbce"
          },
          {
            "result": {
              "duration": 24660347900,
              "status": "passed"
            },
            "line": 5,
            "name": "User fill form edit product",
            "match": {
              "location": "EditProduct.entereditproduct()"
            },
            "keyword": "When ",
            "BDD_STEP_UUID": "2797d049-6644-4068-98c2-49ac6aaeca03"
          },
          {
            "result": {
              "duration": 1424658800,
              "status": "passed"
            },
            "line": 6,
            "name": "User is navigated list product",
            "match": {
              "location": "EditProduct.verifylisteditproduct()"
            },
            "keyword": "Then ",
            "BDD_STEP_UUID": "f969da4d-88f0-47eb-9359-316f74abcb81"
          }
        ]
      }
    ],
    "name": "Edit Product Feature",
    "description": "",
    "id": "edit-product-feature",
    "keyword": "Feature",
    "uri": "C:/Users/USER/Katalon Studio/APK_Second_Hand/Include/features/EditProduct.feature",
    "tags": []
  }
]