[
  {
    "line": 1,
    "elements": [
      {
        "BDD_TESTRUN_UUID": "d2cebb48-cf47-4dd9-b6a2-c9b82bca71bd",
        "line": 3,
        "name": "User want to Edit Product",
        "description": "",
        "id": "edit-product-feature;user-want-to-edit-product",
        "type": "scenario",
        "keyword": "Scenario",
        "steps": [
          {
            "result": {
              "duration": 29367147100,
              "status": "passed"
            },
            "line": 4,
            "name": "User navigates to edit product",
            "match": {
              "location": "EditProduct.navigateToeditpage()"
            },
            "keyword": "Given ",
            "BDD_STEP_UUID": "24921e9a-20f9-4f02-a44a-2e1db8d19c14"
          },
          {
            "result": {
              "duration": 22432225600,
              "status": "passed"
            },
            "line": 5,
            "name": "User fill form edit product",
            "match": {
              "location": "EditProduct.entereditproduct()"
            },
            "keyword": "When ",
            "BDD_STEP_UUID": "079c029d-26d0-4cb3-97aa-6f0a98e2acc3"
          },
          {
            "result": {
              "duration": 1295943701,
              "status": "passed"
            },
            "line": 6,
            "name": "User is navigated list product",
            "match": {
              "location": "EditProduct.verifylisteditproduct()"
            },
            "keyword": "Then ",
            "BDD_STEP_UUID": "b016c2f1-00fe-45cf-b782-1127b7e1d684"
          }
        ]
      }
    ],
    "name": "Edit Product Feature",
    "description": "",
    "id": "edit-product-feature",
    "keyword": "Feature",
    "uri": "C:/Users/USER/Katalon Studio/APK_Second_Hand/Include/features/EditProduct.feature",
    "tags": []
  }
]